<?xml version="1.0" encoding="UTF-8" standalone="no"?>
<svg
   xmlns:dc="http://purl.org/dc/elements/1.1/"
   xmlns:cc="http://creativecommons.org/ns#"
   xmlns:rdf="http://www.w3.org/1999/02/22-rdf-syntax-ns#"
   xmlns:svg="http://www.w3.org/2000/svg"
   xmlns="http://www.w3.org/2000/svg"
   xmlns:sodipodi="http://sodipodi.sourceforge.net/DTD/sodipodi-0.dtd"
   xmlns:inkscape="http://www.inkscape.org/namespaces/inkscape"
   viewBox="0 0 128 128"
   version="1.1"
   id="svg21"
   sodipodi:docname="train.svg"
   inkscape:version="1.0.1 (3bc2e81, 2020-09-07)"
   inkscape:export-filename="/home/vit/ProjectG70/godot3/godot-train-example/game/icon.png"
   inkscape:export-xdpi="192"
   inkscape:export-ydpi="192">
  <metadata
     id="metadata25">
    <rdf:RDF>
      <cc:Work
         rdf:about="">
        <dc:format>image/svg+xml</dc:format>
        <dc:type
           rdf:resource="http://purl.org/dc/dcmitype/StillImage" />
        <dc:title>train</dc:title>
      </cc:Work>
    </rdf:RDF>
  </metadata>
  <sodipodi:namedview
     pagecolor="#888888"
     bordercolor="#666666"
     borderopacity="1"
     objecttolerance="10"
     gridtolerance="10"
     guidetolerance="10"
     inkscape:pageopacity="0"
     inkscape:pageshadow="2"
     inkscape:window-width="1920"
     inkscape:window-height="1054"
     id="namedview23"
     showgrid="false"
     inkscape:snap-global="false"
     inkscape:zoom="2.3470172"
     inkscape:cx="35.90109"
     inkscape:cy="73.649108"
     inkscape:window-x="0"
     inkscape:window-y="1080"
     inkscape:window-maximized="1"
     inkscape:current-layer="svg21" />
  <defs
     id="defs4">
    <style
       id="style2">.cls-1{isolation:isolate;}.cls-2{mix-blend-mode:multiply;}.cls-3{fill:#262835;stroke:#262835;}.cls-3,.cls-4,.cls-5,.cls-6{stroke-linecap:round;stroke-linejoin:round;}.cls-4{fill:#c9222e;stroke:#c9222e;}.cls-5{fill:#23a6dc;stroke:#23a6dc;}.cls-6{fill:#e8c81b;stroke:#e8c81b;}</style>
  </defs>
  <title
     id="title6">train</title>
  <circle
     style="fill:#000000;fill-opacity:1;stroke:#000000;stroke-width:6.6;stroke-linecap:round;stroke-linejoin:round;stroke-miterlimit:4;stroke-dasharray:none;stroke-opacity:1;stop-color:#000000"
     id="circle905"
     cx="85.716393"
     cy="86.068459"
     r="24.6353" />
  <circle
     style="fill:#000000;fill-opacity:1;stroke:#000000;stroke-width:6.6;stroke-linecap:round;stroke-linejoin:round;stroke-miterlimit:4;stroke-dasharray:none;stroke-opacity:1;stop-color:#000000"
     id="circle907"
     cx="37.946609"
     cy="86.068459"
     r="24.530127" />
  <circle
     style="fill:#000000;fill-opacity:1;stroke:none;stroke-width:11.4;stroke-linecap:round;stroke-linejoin:round;stroke-miterlimit:4;stroke-dasharray:none;stroke-opacity:1;stop-color:#000000"
     id="circle887"
     cx="85.716393"
     cy="86.068459"
     r="24.6353" />
  <circle
     style="fill:#000000;fill-opacity:1;stroke:none;stroke-width:11.4;stroke-linecap:round;stroke-linejoin:round;stroke-miterlimit:4;stroke-dasharray:none;stroke-opacity:1;stop-color:#000000"
     id="circle889"
     cx="37.946609"
     cy="86.068459"
     r="24.530127" />
  <path
     class="cls-5"
     d="m 119.5,87.5 -6,-7.14 a 4,4 0 0 1 0.21,-5.34 13.92,13.92 0 0 0 3.74,-9.68 A 14.27,14.27 0 0 0 103.09,51.5 H 99.5 a 6,6 0 0 1 -6,-6 v -3 h -17 v 3 a 6,6 0 0 1 -6,6 h -15 a 6,6 0 0 1 -6,-6 v -19 h 2.83 a 3.11,3.11 0 0 0 3.17,-2.84 3,3 0 0 0 -3,-3.16 h -41 a 3,3 0 0 0 -3,3 v 59 a 5,5 0 0 0 5,5 h 0.05 c 0,-0.5 -0.05,-1 -0.05,-1.5 a 24.5,24.5 0 0 1 48.37,-5.5 h 0.26 A 24.5,24.5 0 0 1 110.5,86 c 0,0.5 0,1 -0.05,1.5 z m -76,-42 a 6,6 0 0 1 -6,6 h -23 v -25 h 29 z"
     id="path891"
     style="isolation:isolate;mix-blend-mode:normal;fill:#000000;fill-opacity:1;stroke:#000000;stroke-width:11.4;stroke-miterlimit:4;stroke-dasharray:none;stroke-opacity:1" />
  <path
     class="cls-6"
     d="M 92.53,39.5 H 77.47 a 2,2 0 0 1 -1.67,-1 8.51,8.51 0 0 1 0,-9 2,2 0 0 1 1.67,-1 h 15.06 a 2,2 0 0 1 1.67,1 8.51,8.51 0 0 1 0,9 2,2 0 0 1 -1.67,1 z"
     id="path893"
     style="isolation:isolate;mix-blend-mode:multiply;fill:#000000;stroke:#000000;stroke-width:11.4;stroke-miterlimit:4;stroke-dasharray:none" />
  <circle
     style="fill:#ffffff;fill-opacity:1;stroke:none;stroke-width:7.1519;stroke-linecap:round;stroke-linejoin:round;stroke-miterlimit:4;stroke-dasharray:none;stroke-opacity:1;stop-color:#000000"
     id="circle875"
     cx="85.716393"
     cy="86.068459"
     r="24.6353" />
  <circle
     style="fill:#ffffff;fill-opacity:1;stroke:none;stroke-width:7.12137;stroke-linecap:round;stroke-linejoin:round;stroke-miterlimit:4;stroke-dasharray:none;stroke-opacity:1;stop-color:#000000"
     id="path865"
     cx="37.946609"
     cy="86.068459"
     r="24.530127" />
  <path
     class="cls-5"
     d="m 119.5,87.5 -6,-7.14 a 4,4 0 0 1 0.21,-5.34 13.92,13.92 0 0 0 3.74,-9.68 A 14.27,14.27 0 0 0 103.09,51.5 H 99.5 a 6,6 0 0 1 -6,-6 v -3 h -17 v 3 a 6,6 0 0 1 -6,6 h -15 a 6,6 0 0 1 -6,-6 v -19 h 2.83 a 3.11,3.11 0 0 0 3.17,-2.84 3,3 0 0 0 -3,-3.16 h -41 a 3,3 0 0 0 -3,3 v 59 a 5,5 0 0 0 5,5 h 0.05 c 0,-0.5 -0.05,-1 -0.05,-1.5 a 24.5,24.5 0 0 1 48.37,-5.5 h 0.26 A 24.5,24.5 0 0 1 110.5,86 c 0,0.5 0,1 -0.05,1.5 z m -76,-42 a 6,6 0 0 1 -6,6 h -23 v -25 h 29 z"
     id="path861"
     style="isolation:isolate;mix-blend-mode:normal;fill:#ffffff;fill-opacity:1;stroke:#ffffff;stroke-width:6;stroke-miterlimit:4;stroke-dasharray:none;stroke-opacity:1" />
  <path
     class="cls-3"
     d="m 86,64.5 a 21.49,21.49 0 0 0 -20.76,16 h 5.23 a 16.5,16.5 0 1 1 0,11 H 65.24 A 21.49,21.49 0 1 0 86,64.5 Z"
     id="path8"
     style="isolation:isolate;mix-blend-mode:multiply;fill:#000000;stroke:#000000" />
  <path
     class="cls-3"
     d="m 53.54,91.5 a 16.5,16.5 0 1 1 0,-11 h 5.23 a 21.5,21.5 0 1 0 0,11 z"
     id="path10"
     style="isolation:isolate;mix-blend-mode:multiply;fill:#000000;stroke:#000000" />
  <path
     class="cls-4"
     d="m 86,79.5 a 6.5,6.5 0 0 0 -6,4 H 44 a 6.5,6.5 0 1 0 0,5 h 36 a 6.5,6.5 0 1 0 6,-9 z"
     id="path12"
     style="isolation:isolate;mix-blend-mode:multiply" />
  <path
     class="cls-5"
     d="m 119.5,87.5 -6,-7.14 a 4,4 0 0 1 0.21,-5.34 13.92,13.92 0 0 0 3.74,-9.68 A 14.27,14.27 0 0 0 103.09,51.5 H 99.5 a 6,6 0 0 1 -6,-6 v -3 h -17 v 3 a 6,6 0 0 1 -6,6 h -15 a 6,6 0 0 1 -6,-6 v -19 h 2.83 a 3.11,3.11 0 0 0 3.17,-2.84 3,3 0 0 0 -3,-3.16 h -41 a 3,3 0 0 0 -3,3 v 59 a 5,5 0 0 0 5,5 h 0.05 c 0,-0.5 -0.05,-1 -0.05,-1.5 a 24.5,24.5 0 0 1 48.37,-5.5 h 0.26 A 24.5,24.5 0 0 1 110.5,86 c 0,0.5 0,1 -0.05,1.5 z m -76,-42 a 6,6 0 0 1 -6,6 h -23 v -25 h 29 z"
     id="path14"
     style="isolation:isolate;mix-blend-mode:normal;fill:#004e80;fill-opacity:1;stroke:none;stroke-opacity:1" />
  <path
     class="cls-6"
     d="M 92.53,39.5 H 77.47 a 2,2 0 0 1 -1.67,-1 8.51,8.51 0 0 1 0,-9 2,2 0 0 1 1.67,-1 h 15.06 a 2,2 0 0 1 1.67,1 8.51,8.51 0 0 1 0,9 2,2 0 0 1 -1.67,1 z"
     id="path863"
     style="isolation:isolate;mix-blend-mode:normal;fill:#ffffff;stroke:#ffffff;stroke-width:6;stroke-miterlimit:4;stroke-dasharray:none" />
  <path
     class="cls-6"
     d="M 92.967898,39.819846 H 77.032102 a 2.1163077,2.1163077 0 0 1 -1.767117,-1.058154 9.0048893,9.0048893 0 0 1 0,-9.523384 2.1163077,2.1163077 0 0 1 1.767117,-1.058154 h 15.935796 a 2.1163077,2.1163077 0 0 1 1.767117,1.058154 9.0048893,9.0048893 0 0 1 0,9.523384 2.1163077,2.1163077 0 0 1 -1.767117,1.058154 z"
     id="path16"
     style="isolation:isolate;mix-blend-mode:normal;fill:#004e80;fill-opacity:1;stroke:none;stroke-width:1.05815;stroke-opacity:1" />
</svg>
